{
  "contractName": "SafeERC20",
  "abi": [],
  "bytecode": "0x604c602c600b82828239805160001a60731460008114601c57601e565bfe5b5030600052607381538281f30073000000000000000000000000000000000000000030146080604052600080fd00a165627a7a7230582027b4d9c982c53f930d9f2db128136125b81e6eeca5d73b10e23a156e460193070029",
  "deployedBytecode": "0x73000000000000000000000000000000000000000030146080604052600080fd00a165627a7a7230582027b4d9c982c53f930d9f2db128136125b81e6eeca5d73b10e23a156e460193070029",
  "sourceMap": "349:506:12:-;;132:2:-1;166:7;155:9;146:7;137:37;252:7;246:14;243:1;238:23;232:4;229:33;270:1;265:20;;;;222:63;;265:20;274:9;222:63;;298:9;295:1;288:20;328:4;319:7;311:22;352:7;343;336:24",
  "deployedSourceMap": "349:506:12:-;;;;;;;;",
  "source": "pragma solidity ^0.4.24;\n\nimport \"./StandardToken.sol\";\nimport \"./ERC20.sol\";\n\n\n/**\n * @title SafeERC20\n * @dev Wrappers around ERC20 operations that throw on failure.\n * To use this library you can add a `using SafeERC20 for ERC20;` statement to your contract,\n * which allows you to call the safe operations as `token.safeTransfer(...)`, etc.\n */\nlibrary SafeERC20 {\n  function safeTransfer(\n    ERC20 _token,\n    address _to,\n    uint256 _value\n  )\n    internal\n  {\n    require(_token.transfer(_to, _value));\n  }\n\n  function safeTransferFrom(\n    ERC20 _token,\n    address _from,\n    address _to,\n    uint256 _value\n  )\n    internal\n  {\n    require(_token.transferFrom(_from, _to, _value));\n  }\n\n  function safeApprove(\n    ERC20 _token,\n    address _spender,\n    uint256 _value\n  )\n    internal\n  {\n    require(_token.approve(_spender, _value));\n  }\n}\n",
  "sourcePath": "openzeppelin-solidity/contracts/token/ERC20/SafeERC20.sol",
  "ast": {
    "absolutePath": "openzeppelin-solidity/contracts/token/ERC20/SafeERC20.sol",
    "exportedSymbols": {
      "SafeERC20": [
        1209
      ]
    },
    "id": 1210,
    "nodeType": "SourceUnit",
    "nodes": [
      {
        "id": 1149,
        "literals": [
          "solidity",
          "^",
          "0.4",
          ".24"
        ],
        "nodeType": "PragmaDirective",
        "src": "0:24:12"
      },
      {
        "absolutePath": "openzeppelin-solidity/contracts/token/ERC20/StandardToken.sol",
        "file": "./StandardToken.sol",
        "id": 1150,
        "nodeType": "ImportDirective",
        "scope": 1210,
        "sourceUnit": 1634,
        "src": "26:29:12",
        "symbolAliases": [],
        "unitAlias": ""
      },
      {
        "absolutePath": "openzeppelin-solidity/contracts/token/ERC20/ERC20.sol",
        "file": "./ERC20.sol",
        "id": 1151,
        "nodeType": "ImportDirective",
        "scope": 1210,
        "sourceUnit": 961,
        "src": "56:21:12",
        "symbolAliases": [],
        "unitAlias": ""
      },
      {
        "baseContracts": [],
        "contractDependencies": [],
        "contractKind": "library",
        "documentation": "@title SafeERC20\n@dev Wrappers around ERC20 operations that throw on failure.\nTo use this library you can add a `using SafeERC20 for ERC20;` statement to your contract,\nwhich allows you to call the safe operations as `token.safeTransfer(...)`, etc.",
        "fullyImplemented": true,
        "id": 1209,
        "linearizedBaseContracts": [
          1209
        ],
        "name": "SafeERC20",
        "nodeType": "ContractDefinition",
        "nodes": [
          {
            "body": {
              "id": 1168,
              "nodeType": "Block",
              "src": "467:48:12",
              "statements": [
                {
                  "expression": {
                    "argumentTypes": null,
                    "arguments": [
                      {
                        "argumentTypes": null,
                        "arguments": [
                          {
                            "argumentTypes": null,
                            "id": 1163,
                            "name": "_to",
                            "nodeType": "Identifier",
                            "overloadedDeclarations": [],
                            "referencedDeclaration": 1155,
                            "src": "497:3:12",
                            "typeDescriptions": {
                              "typeIdentifier": "t_address",
                              "typeString": "address"
                            }
                          },
                          {
                            "argumentTypes": null,
                            "id": 1164,
                            "name": "_value",
                            "nodeType": "Identifier",
                            "overloadedDeclarations": [],
                            "referencedDeclaration": 1157,
                            "src": "502:6:12",
                            "typeDescriptions": {
                              "typeIdentifier": "t_uint256",
                              "typeString": "uint256"
                            }
                          }
                        ],
                        "expression": {
                          "argumentTypes": [
                            {
                              "typeIdentifier": "t_address",
                              "typeString": "address"
                            },
                            {
                              "typeIdentifier": "t_uint256",
                              "typeString": "uint256"
                            }
                          ],
                          "expression": {
                            "argumentTypes": null,
                            "id": 1161,
                            "name": "_token",
                            "nodeType": "Identifier",
                            "overloadedDeclarations": [],
                            "referencedDeclaration": 1153,
                            "src": "481:6:12",
                            "typeDescriptions": {
                              "typeIdentifier": "t_contract$_ERC20_$960",
                              "typeString": "contract ERC20"
                            }
                          },
                          "id": 1162,
                          "isConstant": false,
                          "isLValue": false,
                          "isPure": false,
                          "lValueRequested": false,
                          "memberName": "transfer",
                          "nodeType": "MemberAccess",
                          "referencedDeclaration": 923,
                          "src": "481:15:12",
                          "typeDescriptions": {
                            "typeIdentifier": "t_function_external_nonpayable$_t_address_$_t_uint256_$returns$_t_bool_$",
                            "typeString": "function (address,uint256) external returns (bool)"
                          }
                        },
                        "id": 1165,
                        "isConstant": false,
                        "isLValue": false,
                        "isPure": false,
                        "kind": "functionCall",
                        "lValueRequested": false,
                        "names": [],
                        "nodeType": "FunctionCall",
                        "src": "481:28:12",
                        "typeDescriptions": {
                          "typeIdentifier": "t_bool",
                          "typeString": "bool"
                        }
                      }
                    ],
                    "expression": {
                      "argumentTypes": [
                        {
                          "typeIdentifier": "t_bool",
                          "typeString": "bool"
                        }
                      ],
                      "id": 1160,
                      "name": "require",
                      "nodeType": "Identifier",
                      "overloadedDeclarations": [
                        1651,
                        1652
                      ],
                      "referencedDeclaration": 1651,
                      "src": "473:7:12",
                      "typeDescriptions": {
                        "typeIdentifier": "t_function_require_pure$_t_bool_$returns$__$",
                        "typeString": "function (bool) pure"
                      }
                    },
                    "id": 1166,
                    "isConstant": false,
                    "isLValue": false,
                    "isPure": false,
                    "kind": "functionCall",
                    "lValueRequested": false,
                    "names": [],
                    "nodeType": "FunctionCall",
                    "src": "473:37:12",
                    "typeDescriptions": {
                      "typeIdentifier": "t_tuple$__$",
                      "typeString": "tuple()"
                    }
                  },
                  "id": 1167,
                  "nodeType": "ExpressionStatement",
                  "src": "473:37:12"
                }
              ]
            },
            "documentation": null,
            "id": 1169,
            "implemented": true,
            "isConstructor": false,
            "isDeclaredConst": false,
            "modifiers": [],
            "name": "safeTransfer",
            "nodeType": "FunctionDefinition",
            "parameters": {
              "id": 1158,
              "nodeType": "ParameterList",
              "parameters": [
                {
                  "constant": false,
                  "id": 1153,
                  "name": "_token",
                  "nodeType": "VariableDeclaration",
                  "scope": 1169,
                  "src": "398:12:12",
                  "stateVariable": false,
                  "storageLocation": "default",
                  "typeDescriptions": {
                    "typeIdentifier": "t_contract$_ERC20_$960",
                    "typeString": "contract ERC20"
                  },
                  "typeName": {
                    "contractScope": null,
                    "id": 1152,
                    "name": "ERC20",
                    "nodeType": "UserDefinedTypeName",
                    "referencedDeclaration": 960,
                    "src": "398:5:12",
                    "typeDescriptions": {
                      "typeIdentifier": "t_contract$_ERC20_$960",
                      "typeString": "contract ERC20"
                    }
                  },
                  "value": null,
                  "visibility": "internal"
                },
                {
                  "constant": false,
                  "id": 1155,
                  "name": "_to",
                  "nodeType": "VariableDeclaration",
                  "scope": 1169,
                  "src": "416:11:12",
                  "stateVariable": false,
                  "storageLocation": "default",
                  "typeDescriptions": {
                    "typeIdentifier": "t_address",
                    "typeString": "address"
                  },
                  "typeName": {
                    "id": 1154,
                    "name": "address",
                    "nodeType": "ElementaryTypeName",
                    "src": "416:7:12",
                    "typeDescriptions": {
                      "typeIdentifier": "t_address",
                      "typeString": "address"
                    }
                  },
                  "value": null,
                  "visibility": "internal"
                },
                {
                  "constant": false,
                  "id": 1157,
                  "name": "_value",
                  "nodeType": "VariableDeclaration",
                  "scope": 1169,
                  "src": "433:14:12",
                  "stateVariable": false,
                  "storageLocation": "default",
                  "typeDescriptions": {
                    "typeIdentifier": "t_uint256",
                    "typeString": "uint256"
                  },
                  "typeName": {
                    "id": 1156,
                    "name": "uint256",
                    "nodeType": "ElementaryTypeName",
                    "src": "433:7:12",
                    "typeDescriptions": {
                      "typeIdentifier": "t_uint256",
                      "typeString": "uint256"
                    }
                  },
                  "value": null,
                  "visibility": "internal"
                }
              ],
              "src": "392:59:12"
            },
            "payable": false,
            "returnParameters": {
              "id": 1159,
              "nodeType": "ParameterList",
              "parameters": [],
              "src": "467:0:12"
            },
            "scope": 1209,
            "src": "371:144:12",
            "stateMutability": "nonpayable",
            "superFunction": null,
            "visibility": "internal"
          },
          {
            "body": {
              "id": 1189,
              "nodeType": "Block",
              "src": "638:59:12",
              "statements": [
                {
                  "expression": {
                    "argumentTypes": null,
                    "arguments": [
                      {
                        "argumentTypes": null,
                        "arguments": [
                          {
                            "argumentTypes": null,
                            "id": 1183,
                            "name": "_from",
                            "nodeType": "Identifier",
                            "overloadedDeclarations": [],
                            "referencedDeclaration": 1173,
                            "src": "672:5:12",
                            "typeDescriptions": {
                              "typeIdentifier": "t_address",
                              "typeString": "address"
                            }
                          },
                          {
                            "argumentTypes": null,
                            "id": 1184,
                            "name": "_to",
                            "nodeType": "Identifier",
                            "overloadedDeclarations": [],
                            "referencedDeclaration": 1175,
                            "src": "679:3:12",
                            "typeDescriptions": {
                              "typeIdentifier": "t_address",
                              "typeString": "address"
                            }
                          },
                          {
                            "argumentTypes": null,
                            "id": 1185,
                            "name": "_value",
                            "nodeType": "Identifier",
                            "overloadedDeclarations": [],
                            "referencedDeclaration": 1177,
                            "src": "684:6:12",
                            "typeDescriptions": {
                              "typeIdentifier": "t_uint256",
                              "typeString": "uint256"
                            }
                          }
                        ],
                        "expression": {
                          "argumentTypes": [
                            {
                              "typeIdentifier": "t_address",
                              "typeString": "address"
                            },
                            {
                              "typeIdentifier": "t_address",
                              "typeString": "address"
                            },
                            {
                              "typeIdentifier": "t_uint256",
                              "typeString": "uint256"
                            }
                          ],
                          "expression": {
                            "argumentTypes": null,
                            "id": 1181,
                            "name": "_token",
                            "nodeType": "Identifier",
                            "overloadedDeclarations": [],
                            "referencedDeclaration": 1171,
                            "src": "652:6:12",
                            "typeDescriptions": {
                              "typeIdentifier": "t_contract$_ERC20_$960",
                              "typeString": "contract ERC20"
                            }
                          },
                          "id": 1182,
                          "isConstant": false,
                          "isLValue": false,
                          "isPure": false,
                          "lValueRequested": false,
                          "memberName": "transferFrom",
                          "nodeType": "MemberAccess",
                          "referencedDeclaration": 943,
                          "src": "652:19:12",
                          "typeDescriptions": {
                            "typeIdentifier": "t_function_external_nonpayable$_t_address_$_t_address_$_t_uint256_$returns$_t_bool_$",
                            "typeString": "function (address,address,uint256) external returns (bool)"
                          }
                        },
                        "id": 1186,
                        "isConstant": false,
                        "isLValue": false,
                        "isPure": false,
                        "kind": "functionCall",
                        "lValueRequested": false,
                        "names": [],
                        "nodeType": "FunctionCall",
                        "src": "652:39:12",
                        "typeDescriptions": {
                          "typeIdentifier": "t_bool",
                          "typeString": "bool"
                        }
                      }
                    ],
                    "expression": {
                      "argumentTypes": [
                        {
                          "typeIdentifier": "t_bool",
                          "typeString": "bool"
                        }
                      ],
                      "id": 1180,
                      "name": "require",
                      "nodeType": "Identifier",
                      "overloadedDeclarations": [
                        1651,
                        1652
                      ],
                      "referencedDeclaration": 1651,
                      "src": "644:7:12",
                      "typeDescriptions": {
                        "typeIdentifier": "t_function_require_pure$_t_bool_$returns$__$",
                        "typeString": "function (bool) pure"
                      }
                    },
                    "id": 1187,
                    "isConstant": false,
                    "isLValue": false,
                    "isPure": false,
                    "kind": "functionCall",
                    "lValueRequested": false,
                    "names": [],
                    "nodeType": "FunctionCall",
                    "src": "644:48:12",
                    "typeDescriptions": {
                      "typeIdentifier": "t_tuple$__$",
                      "typeString": "tuple()"
                    }
                  },
                  "id": 1188,
                  "nodeType": "ExpressionStatement",
                  "src": "644:48:12"
                }
              ]
            },
            "documentation": null,
            "id": 1190,
            "implemented": true,
            "isConstructor": false,
            "isDeclaredConst": false,
            "modifiers": [],
            "name": "safeTransferFrom",
            "nodeType": "FunctionDefinition",
            "parameters": {
              "id": 1178,
              "nodeType": "ParameterList",
              "parameters": [
                {
                  "constant": false,
                  "id": 1171,
                  "name": "_token",
                  "nodeType": "VariableDeclaration",
                  "scope": 1190,
                  "src": "550:12:12",
                  "stateVariable": false,
                  "storageLocation": "default",
                  "typeDescriptions": {
                    "typeIdentifier": "t_contract$_ERC20_$960",
                    "typeString": "contract ERC20"
                  },
                  "typeName": {
                    "contractScope": null,
                    "id": 1170,
                    "name": "ERC20",
                    "nodeType": "UserDefinedTypeName",
                    "referencedDeclaration": 960,
                    "src": "550:5:12",
                    "typeDescriptions": {
                      "typeIdentifier": "t_contract$_ERC20_$960",
                      "typeString": "contract ERC20"
                    }
                  },
                  "value": null,
                  "visibility": "internal"
                },
                {
                  "constant": false,
                  "id": 1173,
                  "name": "_from",
                  "nodeType": "VariableDeclaration",
                  "scope": 1190,
                  "src": "568:13:12",
                  "stateVariable": false,
                  "storageLocation": "default",
                  "typeDescriptions": {
                    "typeIdentifier": "t_address",
                    "typeString": "address"
                  },
                  "typeName": {
                    "id": 1172,
                    "name": "address",
                    "nodeType": "ElementaryTypeName",
                    "src": "568:7:12",
                    "typeDescriptions": {
                      "typeIdentifier": "t_address",
                      "typeString": "address"
                    }
                  },
                  "value": null,
                  "visibility": "internal"
                },
                {
                  "constant": false,
                  "id": 1175,
                  "name": "_to",
                  "nodeType": "VariableDeclaration",
                  "scope": 1190,
                  "src": "587:11:12",
                  "stateVariable": false,
                  "storageLocation": "default",
                  "typeDescriptions": {
                    "typeIdentifier": "t_address",
                    "typeString": "address"
                  },
                  "typeName": {
                    "id": 1174,
                    "name": "address",
                    "nodeType": "ElementaryTypeName",
                    "src": "587:7:12",
                    "typeDescriptions": {
                      "typeIdentifier": "t_address",
                      "typeString": "address"
                    }
                  },
                  "value": null,
                  "visibility": "internal"
                },
                {
                  "constant": false,
                  "id": 1177,
                  "name": "_value",
                  "nodeType": "VariableDeclaration",
                  "scope": 1190,
                  "src": "604:14:12",
                  "stateVariable": false,
                  "storageLocation": "default",
                  "typeDescriptions": {
                    "typeIdentifier": "t_uint256",
                    "typeString": "uint256"
                  },
                  "typeName": {
                    "id": 1176,
                    "name": "uint256",
                    "nodeType": "ElementaryTypeName",
                    "src": "604:7:12",
                    "typeDescriptions": {
                      "typeIdentifier": "t_uint256",
                      "typeString": "uint256"
                    }
                  },
                  "value": null,
                  "visibility": "internal"
                }
              ],
              "src": "544:78:12"
            },
            "payable": false,
            "returnParameters": {
              "id": 1179,
              "nodeType": "ParameterList",
              "parameters": [],
              "src": "638:0:12"
            },
            "scope": 1209,
            "src": "519:178:12",
            "stateMutability": "nonpayable",
            "superFunction": null,
            "visibility": "internal"
          },
          {
            "body": {
              "id": 1207,
              "nodeType": "Block",
              "src": "801:52:12",
              "statements": [
                {
                  "expression": {
                    "argumentTypes": null,
                    "arguments": [
                      {
                        "argumentTypes": null,
                        "arguments": [
                          {
                            "argumentTypes": null,
                            "id": 1202,
                            "name": "_spender",
                            "nodeType": "Identifier",
                            "overloadedDeclarations": [],
                            "referencedDeclaration": 1194,
                            "src": "830:8:12",
                            "typeDescriptions": {
                              "typeIdentifier": "t_address",
                              "typeString": "address"
                            }
                          },
                          {
                            "argumentTypes": null,
                            "id": 1203,
                            "name": "_value",
                            "nodeType": "Identifier",
                            "overloadedDeclarations": [],
                            "referencedDeclaration": 1196,
                            "src": "840:6:12",
                            "typeDescriptions": {
                              "typeIdentifier": "t_uint256",
                              "typeString": "uint256"
                            }
                          }
                        ],
                        "expression": {
                          "argumentTypes": [
                            {
                              "typeIdentifier": "t_address",
                              "typeString": "address"
                            },
                            {
                              "typeIdentifier": "t_uint256",
                              "typeString": "uint256"
                            }
                          ],
                          "expression": {
                            "argumentTypes": null,
                            "id": 1200,
                            "name": "_token",
                            "nodeType": "Identifier",
                            "overloadedDeclarations": [],
                            "referencedDeclaration": 1192,
                            "src": "815:6:12",
                            "typeDescriptions": {
                              "typeIdentifier": "t_contract$_ERC20_$960",
                              "typeString": "contract ERC20"
                            }
                          },
                          "id": 1201,
                          "isConstant": false,
                          "isLValue": false,
                          "isPure": false,
                          "lValueRequested": false,
                          "memberName": "approve",
                          "nodeType": "MemberAccess",
                          "referencedDeclaration": 932,
                          "src": "815:14:12",
                          "typeDescriptions": {
                            "typeIdentifier": "t_function_external_nonpayable$_t_address_$_t_uint256_$returns$_t_bool_$",
                            "typeString": "function (address,uint256) external returns (bool)"
                          }
                        },
                        "id": 1204,
                        "isConstant": false,
                        "isLValue": false,
                        "isPure": false,
                        "kind": "functionCall",
                        "lValueRequested": false,
                        "names": [],
                        "nodeType": "FunctionCall",
                        "src": "815:32:12",
                        "typeDescriptions": {
                          "typeIdentifier": "t_bool",
                          "typeString": "bool"
                        }
                      }
                    ],
                    "expression": {
                      "argumentTypes": [
                        {
                          "typeIdentifier": "t_bool",
                          "typeString": "bool"
                        }
                      ],
                      "id": 1199,
                      "name": "require",
                      "nodeType": "Identifier",
                      "overloadedDeclarations": [
                        1651,
                        1652
                      ],
                      "referencedDeclaration": 1651,
                      "src": "807:7:12",
                      "typeDescriptions": {
                        "typeIdentifier": "t_function_require_pure$_t_bool_$returns$__$",
                        "typeString": "function (bool) pure"
                      }
                    },
                    "id": 1205,
                    "isConstant": false,
                    "isLValue": false,
                    "isPure": false,
                    "kind": "functionCall",
                    "lValueRequested": false,
                    "names": [],
                    "nodeType": "FunctionCall",
                    "src": "807:41:12",
                    "typeDescriptions": {
                      "typeIdentifier": "t_tuple$__$",
                      "typeString": "tuple()"
                    }
                  },
                  "id": 1206,
                  "nodeType": "ExpressionStatement",
                  "src": "807:41:12"
                }
              ]
            },
            "documentation": null,
            "id": 1208,
            "implemented": true,
            "isConstructor": false,
            "isDeclaredConst": false,
            "modifiers": [],
            "name": "safeApprove",
            "nodeType": "FunctionDefinition",
            "parameters": {
              "id": 1197,
              "nodeType": "ParameterList",
              "parameters": [
                {
                  "constant": false,
                  "id": 1192,
                  "name": "_token",
                  "nodeType": "VariableDeclaration",
                  "scope": 1208,
                  "src": "727:12:12",
                  "stateVariable": false,
                  "storageLocation": "default",
                  "typeDescriptions": {
                    "typeIdentifier": "t_contract$_ERC20_$960",
                    "typeString": "contract ERC20"
                  },
                  "typeName": {
                    "contractScope": null,
                    "id": 1191,
                    "name": "ERC20",
                    "nodeType": "UserDefinedTypeName",
                    "referencedDeclaration": 960,
                    "src": "727:5:12",
                    "typeDescriptions": {
                      "typeIdentifier": "t_contract$_ERC20_$960",
                      "typeString": "contract ERC20"
                    }
                  },
                  "value": null,
                  "visibility": "internal"
                },
                {
                  "constant": false,
                  "id": 1194,
                  "name": "_spender",
                  "nodeType": "VariableDeclaration",
                  "scope": 1208,
                  "src": "745:16:12",
                  "stateVariable": false,
                  "storageLocation": "default",
                  "typeDescriptions": {
                    "typeIdentifier": "t_address",
                    "typeString": "address"
                  },
                  "typeName": {
                    "id": 1193,
                    "name": "address",
                    "nodeType": "ElementaryTypeName",
                    "src": "745:7:12",
                    "typeDescriptions": {
                      "typeIdentifier": "t_address",
                      "typeString": "address"
                    }
                  },
                  "value": null,
                  "visibility": "internal"
                },
                {
                  "constant": false,
                  "id": 1196,
                  "name": "_value",
                  "nodeType": "VariableDeclaration",
                  "scope": 1208,
                  "src": "767:14:12",
                  "stateVariable": false,
                  "storageLocation": "default",
                  "typeDescriptions": {
                    "typeIdentifier": "t_uint256",
                    "typeString": "uint256"
                  },
                  "typeName": {
                    "id": 1195,
                    "name": "uint256",
                    "nodeType": "ElementaryTypeName",
                    "src": "767:7:12",
                    "typeDescriptions": {
                      "typeIdentifier": "t_uint256",
                      "typeString": "uint256"
                    }
                  },
                  "value": null,
                  "visibility": "internal"
                }
              ],
              "src": "721:64:12"
            },
            "payable": false,
            "returnParameters": {
              "id": 1198,
              "nodeType": "ParameterList",
              "parameters": [],
              "src": "801:0:12"
            },
            "scope": 1209,
            "src": "701:152:12",
            "stateMutability": "nonpayable",
            "superFunction": null,
            "visibility": "internal"
          }
        ],
        "scope": 1210,
        "src": "349:506:12"
      }
    ],
    "src": "0:856:12"
  },
  "legacyAST": {
    "absolutePath": "openzeppelin-solidity/contracts/token/ERC20/SafeERC20.sol",
    "exportedSymbols": {
      "SafeERC20": [
        1209
      ]
    },
    "id": 1210,
    "nodeType": "SourceUnit",
    "nodes": [
      {
        "id": 1149,
        "literals": [
          "solidity",
          "^",
          "0.4",
          ".24"
        ],
        "nodeType": "PragmaDirective",
        "src": "0:24:12"
      },
      {
        "absolutePath": "openzeppelin-solidity/contracts/token/ERC20/StandardToken.sol",
        "file": "./StandardToken.sol",
        "id": 1150,
        "nodeType": "ImportDirective",
        "scope": 1210,
        "sourceUnit": 1634,
        "src": "26:29:12",
        "symbolAliases": [],
        "unitAlias": ""
      },
      {
        "absolutePath": "openzeppelin-solidity/contracts/token/ERC20/ERC20.sol",
        "file": "./ERC20.sol",
        "id": 1151,
        "nodeType": "ImportDirective",
        "scope": 1210,
        "sourceUnit": 961,
        "src": "56:21:12",
        "symbolAliases": [],
        "unitAlias": ""
      },
      {
        "baseContracts": [],
        "contractDependencies": [],
        "contractKind": "library",
        "documentation": "@title SafeERC20\n@dev Wrappers around ERC20 operations that throw on failure.\nTo use this library you can add a `using SafeERC20 for ERC20;` statement to your contract,\nwhich allows you to call the safe operations as `token.safeTransfer(...)`, etc.",
        "fullyImplemented": true,
        "id": 1209,
        "linearizedBaseContracts": [
          1209
        ],
        "name": "SafeERC20",
        "nodeType": "ContractDefinition",
        "nodes": [
          {
            "body": {
              "id": 1168,
              "nodeType": "Block",
              "src": "467:48:12",
              "statements": [
                {
                  "expression": {
                    "argumentTypes": null,
                    "arguments": [
                      {
                        "argumentTypes": null,
                        "arguments": [
                          {
                            "argumentTypes": null,
                            "id": 1163,
                            "name": "_to",
                            "nodeType": "Identifier",
                            "overloadedDeclarations": [],
                            "referencedDeclaration": 1155,
                            "src": "497:3:12",
                            "typeDescriptions": {
                              "typeIdentifier": "t_address",
                              "typeString": "address"
                            }
                          },
                          {
                            "argumentTypes": null,
                            "id": 1164,
                            "name": "_value",
                            "nodeType": "Identifier",
                            "overloadedDeclarations": [],
                            "referencedDeclaration": 1157,
                            "src": "502:6:12",
                            "typeDescriptions": {
                              "typeIdentifier": "t_uint256",
                              "typeString": "uint256"
                            }
                          }
                        ],
                        "expression": {
                          "argumentTypes": [
                            {
                              "typeIdentifier": "t_address",
                              "typeString": "address"
                            },
                            {
                              "typeIdentifier": "t_uint256",
                              "typeString": "uint256"
                            }
                          ],
                          "expression": {
                            "argumentTypes": null,
                            "id": 1161,
                            "name": "_token",
                            "nodeType": "Identifier",
                            "overloadedDeclarations": [],
                            "referencedDeclaration": 1153,
                            "src": "481:6:12",
                            "typeDescriptions": {
                              "typeIdentifier": "t_contract$_ERC20_$960",
                              "typeString": "contract ERC20"
                            }
                          },
                          "id": 1162,
                          "isConstant": false,
                          "isLValue": false,
                          "isPure": false,
                          "lValueRequested": false,
                          "memberName": "transfer",
                          "nodeType": "MemberAccess",
                          "referencedDeclaration": 923,
                          "src": "481:15:12",
                          "typeDescriptions": {
                            "typeIdentifier": "t_function_external_nonpayable$_t_address_$_t_uint256_$returns$_t_bool_$",
                            "typeString": "function (address,uint256) external returns (bool)"
                          }
                        },
                        "id": 1165,
                        "isConstant": false,
                        "isLValue": false,
                        "isPure": false,
                        "kind": "functionCall",
                        "lValueRequested": false,
                        "names": [],
                        "nodeType": "FunctionCall",
                        "src": "481:28:12",
                        "typeDescriptions": {
                          "typeIdentifier": "t_bool",
                          "typeString": "bool"
                        }
                      }
                    ],
                    "expression": {
                      "argumentTypes": [
                        {
                          "typeIdentifier": "t_bool",
                          "typeString": "bool"
                        }
                      ],
                      "id": 1160,
                      "name": "require",
                      "nodeType": "Identifier",
                      "overloadedDeclarations": [
                        1651,
                        1652
                      ],
                      "referencedDeclaration": 1651,
                      "src": "473:7:12",
                      "typeDescriptions": {
                        "typeIdentifier": "t_function_require_pure$_t_bool_$returns$__$",
                        "typeString": "function (bool) pure"
                      }
                    },
                    "id": 1166,
                    "isConstant": false,
                    "isLValue": false,
                    "isPure": false,
                    "kind": "functionCall",
                    "lValueRequested": false,
                    "names": [],
                    "nodeType": "FunctionCall",
                    "src": "473:37:12",
                    "typeDescriptions": {
                      "typeIdentifier": "t_tuple$__$",
                      "typeString": "tuple()"
                    }
                  },
                  "id": 1167,
                  "nodeType": "ExpressionStatement",
                  "src": "473:37:12"
                }
              ]
            },
            "documentation": null,
            "id": 1169,
            "implemented": true,
            "isConstructor": false,
            "isDeclaredConst": false,
            "modifiers": [],
            "name": "safeTransfer",
            "nodeType": "FunctionDefinition",
            "parameters": {
              "id": 1158,
              "nodeType": "ParameterList",
              "parameters": [
                {
                  "constant": false,
                  "id": 1153,
                  "name": "_token",
                  "nodeType": "VariableDeclaration",
                  "scope": 1169,
                  "src": "398:12:12",
                  "stateVariable": false,
                  "storageLocation": "default",
                  "typeDescriptions": {
                    "typeIdentifier": "t_contract$_ERC20_$960",
                    "typeString": "contract ERC20"
                  },
                  "typeName": {
                    "contractScope": null,
                    "id": 1152,
                    "name": "ERC20",
                    "nodeType": "UserDefinedTypeName",
                    "referencedDeclaration": 960,
                    "src": "398:5:12",
                    "typeDescriptions": {
                      "typeIdentifier": "t_contract$_ERC20_$960",
                      "typeString": "contract ERC20"
                    }
                  },
                  "value": null,
                  "visibility": "internal"
                },
                {
                  "constant": false,
                  "id": 1155,
                  "name": "_to",
                  "nodeType": "VariableDeclaration",
                  "scope": 1169,
                  "src": "416:11:12",
                  "stateVariable": false,
                  "storageLocation": "default",
                  "typeDescriptions": {
                    "typeIdentifier": "t_address",
                    "typeString": "address"
                  },
                  "typeName": {
                    "id": 1154,
                    "name": "address",
                    "nodeType": "ElementaryTypeName",
                    "src": "416:7:12",
                    "typeDescriptions": {
                      "typeIdentifier": "t_address",
                      "typeString": "address"
                    }
                  },
                  "value": null,
                  "visibility": "internal"
                },
                {
                  "constant": false,
                  "id": 1157,
                  "name": "_value",
                  "nodeType": "VariableDeclaration",
                  "scope": 1169,
                  "src": "433:14:12",
                  "stateVariable": false,
                  "storageLocation": "default",
                  "typeDescriptions": {
                    "typeIdentifier": "t_uint256",
                    "typeString": "uint256"
                  },
                  "typeName": {
                    "id": 1156,
                    "name": "uint256",
                    "nodeType": "ElementaryTypeName",
                    "src": "433:7:12",
                    "typeDescriptions": {
                      "typeIdentifier": "t_uint256",
                      "typeString": "uint256"
                    }
                  },
                  "value": null,
                  "visibility": "internal"
                }
              ],
              "src": "392:59:12"
            },
            "payable": false,
            "returnParameters": {
              "id": 1159,
              "nodeType": "ParameterList",
              "parameters": [],
              "src": "467:0:12"
            },
            "scope": 1209,
            "src": "371:144:12",
            "stateMutability": "nonpayable",
            "superFunction": null,
            "visibility": "internal"
          },
          {
            "body": {
              "id": 1189,
              "nodeType": "Block",
              "src": "638:59:12",
              "statements": [
                {
                  "expression": {
                    "argumentTypes": null,
                    "arguments": [
                      {
                        "argumentTypes": null,
                        "arguments": [
                          {
                            "argumentTypes": null,
                            "id": 1183,
                            "name": "_from",
                            "nodeType": "Identifier",
                            "overloadedDeclarations": [],
                            "referencedDeclaration": 1173,
                            "src": "672:5:12",
                            "typeDescriptions": {
                              "typeIdentifier": "t_address",
                              "typeString": "address"
                            }
                          },
                          {
                            "argumentTypes": null,
                            "id": 1184,
                            "name": "_to",
                            "nodeType": "Identifier",
                            "overloadedDeclarations": [],
                            "referencedDeclaration": 1175,
                            "src": "679:3:12",
                            "typeDescriptions": {
                              "typeIdentifier": "t_address",
                              "typeString": "address"
                            }
                          },
                          {
                            "argumentTypes": null,
                            "id": 1185,
                            "name": "_value",
                            "nodeType": "Identifier",
                            "overloadedDeclarations": [],
                            "referencedDeclaration": 1177,
                            "src": "684:6:12",
                            "typeDescriptions": {
                              "typeIdentifier": "t_uint256",
                              "typeString": "uint256"
                            }
                          }
                        ],
                        "expression": {
                          "argumentTypes": [
                            {
                              "typeIdentifier": "t_address",
                              "typeString": "address"
                            },
                            {
                              "typeIdentifier": "t_address",
                              "typeString": "address"
                            },
                            {
                              "typeIdentifier": "t_uint256",
                              "typeString": "uint256"
                            }
                          ],
                          "expression": {
                            "argumentTypes": null,
                            "id": 1181,
                            "name": "_token",
                            "nodeType": "Identifier",
                            "overloadedDeclarations": [],
                            "referencedDeclaration": 1171,
                            "src": "652:6:12",
                            "typeDescriptions": {
                              "typeIdentifier": "t_contract$_ERC20_$960",
                              "typeString": "contract ERC20"
                            }
                          },
                          "id": 1182,
                          "isConstant": false,
                          "isLValue": false,
                          "isPure": false,
                          "lValueRequested": false,
                          "memberName": "transferFrom",
                          "nodeType": "MemberAccess",
                          "referencedDeclaration": 943,
                          "src": "652:19:12",
                          "typeDescriptions": {
                            "typeIdentifier": "t_function_external_nonpayable$_t_address_$_t_address_$_t_uint256_$returns$_t_bool_$",
                            "typeString": "function (address,address,uint256) external returns (bool)"
                          }
                        },
                        "id": 1186,
                        "isConstant": false,
                        "isLValue": false,
                        "isPure": false,
                        "kind": "functionCall",
                        "lValueRequested": false,
                        "names": [],
                        "nodeType": "FunctionCall",
                        "src": "652:39:12",
                        "typeDescriptions": {
                          "typeIdentifier": "t_bool",
                          "typeString": "bool"
                        }
                      }
                    ],
                    "expression": {
                      "argumentTypes": [
                        {
                          "typeIdentifier": "t_bool",
                          "typeString": "bool"
                        }
                      ],
                      "id": 1180,
                      "name": "require",
                      "nodeType": "Identifier",
                      "overloadedDeclarations": [
                        1651,
                        1652
                      ],
                      "referencedDeclaration": 1651,
                      "src": "644:7:12",
                      "typeDescriptions": {
                        "typeIdentifier": "t_function_require_pure$_t_bool_$returns$__$",
                        "typeString": "function (bool) pure"
                      }
                    },
                    "id": 1187,
                    "isConstant": false,
                    "isLValue": false,
                    "isPure": false,
                    "kind": "functionCall",
                    "lValueRequested": false,
                    "names": [],
                    "nodeType": "FunctionCall",
                    "src": "644:48:12",
                    "typeDescriptions": {
                      "typeIdentifier": "t_tuple$__$",
                      "typeString": "tuple()"
                    }
                  },
                  "id": 1188,
                  "nodeType": "ExpressionStatement",
                  "src": "644:48:12"
                }
              ]
            },
            "documentation": null,
            "id": 1190,
            "implemented": true,
            "isConstructor": false,
            "isDeclaredConst": false,
            "modifiers": [],
            "name": "safeTransferFrom",
            "nodeType": "FunctionDefinition",
            "parameters": {
              "id": 1178,
              "nodeType": "ParameterList",
              "parameters": [
                {
                  "constant": false,
                  "id": 1171,
                  "name": "_token",
                  "nodeType": "VariableDeclaration",
                  "scope": 1190,
                  "src": "550:12:12",
                  "stateVariable": false,
                  "storageLocation": "default",
                  "typeDescriptions": {
                    "typeIdentifier": "t_contract$_ERC20_$960",
                    "typeString": "contract ERC20"
                  },
                  "typeName": {
                    "contractScope": null,
                    "id": 1170,
                    "name": "ERC20",
                    "nodeType": "UserDefinedTypeName",
                    "referencedDeclaration": 960,
                    "src": "550:5:12",
                    "typeDescriptions": {
                      "typeIdentifier": "t_contract$_ERC20_$960",
                      "typeString": "contract ERC20"
                    }
                  },
                  "value": null,
                  "visibility": "internal"
                },
                {
                  "constant": false,
                  "id": 1173,
                  "name": "_from",
                  "nodeType": "VariableDeclaration",
                  "scope": 1190,
                  "src": "568:13:12",
                  "stateVariable": false,
                  "storageLocation": "default",
                  "typeDescriptions": {
                    "typeIdentifier": "t_address",
                    "typeString": "address"
                  },
                  "typeName": {
                    "id": 1172,
                    "name": "address",
                    "nodeType": "ElementaryTypeName",
                    "src": "568:7:12",
                    "typeDescriptions": {
                      "typeIdentifier": "t_address",
                      "typeString": "address"
                    }
                  },
                  "value": null,
                  "visibility": "internal"
                },
                {
                  "constant": false,
                  "id": 1175,
                  "name": "_to",
                  "nodeType": "VariableDeclaration",
                  "scope": 1190,
                  "src": "587:11:12",
                  "stateVariable": false,
                  "storageLocation": "default",
                  "typeDescriptions": {
                    "typeIdentifier": "t_address",
                    "typeString": "address"
                  },
                  "typeName": {
                    "id": 1174,
                    "name": "address",
                    "nodeType": "ElementaryTypeName",
                    "src": "587:7:12",
                    "typeDescriptions": {
                      "typeIdentifier": "t_address",
                      "typeString": "address"
                    }
                  },
                  "value": null,
                  "visibility": "internal"
                },
                {
                  "constant": false,
                  "id": 1177,
                  "name": "_value",
                  "nodeType": "VariableDeclaration",
                  "scope": 1190,
                  "src": "604:14:12",
                  "stateVariable": false,
                  "storageLocation": "default",
                  "typeDescriptions": {
                    "typeIdentifier": "t_uint256",
                    "typeString": "uint256"
                  },
                  "typeName": {
                    "id": 1176,
                    "name": "uint256",
                    "nodeType": "ElementaryTypeName",
                    "src": "604:7:12",
                    "typeDescriptions": {
                      "typeIdentifier": "t_uint256",
                      "typeString": "uint256"
                    }
                  },
                  "value": null,
                  "visibility": "internal"
                }
              ],
              "src": "544:78:12"
            },
            "payable": false,
            "returnParameters": {
              "id": 1179,
              "nodeType": "ParameterList",
              "parameters": [],
              "src": "638:0:12"
            },
            "scope": 1209,
            "src": "519:178:12",
            "stateMutability": "nonpayable",
            "superFunction": null,
            "visibility": "internal"
          },
          {
            "body": {
              "id": 1207,
              "nodeType": "Block",
              "src": "801:52:12",
              "statements": [
                {
                  "expression": {
                    "argumentTypes": null,
                    "arguments": [
                      {
                        "argumentTypes": null,
                        "arguments": [
                          {
                            "argumentTypes": null,
                            "id": 1202,
                            "name": "_spender",
                            "nodeType": "Identifier",
                            "overloadedDeclarations": [],
                            "referencedDeclaration": 1194,
                            "src": "830:8:12",
                            "typeDescriptions": {
                              "typeIdentifier": "t_address",
                              "typeString": "address"
                            }
                          },
                          {
                            "argumentTypes": null,
                            "id": 1203,
                            "name": "_value",
                            "nodeType": "Identifier",
                            "overloadedDeclarations": [],
                            "referencedDeclaration": 1196,
                            "src": "840:6:12",
                            "typeDescriptions": {
                              "typeIdentifier": "t_uint256",
                              "typeString": "uint256"
                            }
                          }
                        ],
                        "expression": {
                          "argumentTypes": [
                            {
                              "typeIdentifier": "t_address",
                              "typeString": "address"
                            },
                            {
                              "typeIdentifier": "t_uint256",
                              "typeString": "uint256"
                            }
                          ],
                          "expression": {
                            "argumentTypes": null,
                            "id": 1200,
                            "name": "_token",
                            "nodeType": "Identifier",
                            "overloadedDeclarations": [],
                            "referencedDeclaration": 1192,
                            "src": "815:6:12",
                            "typeDescriptions": {
                              "typeIdentifier": "t_contract$_ERC20_$960",
                              "typeString": "contract ERC20"
                            }
                          },
                          "id": 1201,
                          "isConstant": false,
                          "isLValue": false,
                          "isPure": false,
                          "lValueRequested": false,
                          "memberName": "approve",
                          "nodeType": "MemberAccess",
                          "referencedDeclaration": 932,
                          "src": "815:14:12",
                          "typeDescriptions": {
                            "typeIdentifier": "t_function_external_nonpayable$_t_address_$_t_uint256_$returns$_t_bool_$",
                            "typeString": "function (address,uint256) external returns (bool)"
                          }
                        },
                        "id": 1204,
                        "isConstant": false,
                        "isLValue": false,
                        "isPure": false,
                        "kind": "functionCall",
                        "lValueRequested": false,
                        "names": [],
                        "nodeType": "FunctionCall",
                        "src": "815:32:12",
                        "typeDescriptions": {
                          "typeIdentifier": "t_bool",
                          "typeString": "bool"
                        }
                      }
                    ],
                    "expression": {
                      "argumentTypes": [
                        {
                          "typeIdentifier": "t_bool",
                          "typeString": "bool"
                        }
                      ],
                      "id": 1199,
                      "name": "require",
                      "nodeType": "Identifier",
                      "overloadedDeclarations": [
                        1651,
                        1652
                      ],
                      "referencedDeclaration": 1651,
                      "src": "807:7:12",
                      "typeDescriptions": {
                        "typeIdentifier": "t_function_require_pure$_t_bool_$returns$__$",
                        "typeString": "function (bool) pure"
                      }
                    },
                    "id": 1205,
                    "isConstant": false,
                    "isLValue": false,
                    "isPure": false,
                    "kind": "functionCall",
                    "lValueRequested": false,
                    "names": [],
                    "nodeType": "FunctionCall",
                    "src": "807:41:12",
                    "typeDescriptions": {
                      "typeIdentifier": "t_tuple$__$",
                      "typeString": "tuple()"
                    }
                  },
                  "id": 1206,
                  "nodeType": "ExpressionStatement",
                  "src": "807:41:12"
                }
              ]
            },
            "documentation": null,
            "id": 1208,
            "implemented": true,
            "isConstructor": false,
            "isDeclaredConst": false,
            "modifiers": [],
            "name": "safeApprove",
            "nodeType": "FunctionDefinition",
            "parameters": {
              "id": 1197,
              "nodeType": "ParameterList",
              "parameters": [
                {
                  "constant": false,
                  "id": 1192,
                  "name": "_token",
                  "nodeType": "VariableDeclaration",
                  "scope": 1208,
                  "src": "727:12:12",
                  "stateVariable": false,
                  "storageLocation": "default",
                  "typeDescriptions": {
                    "typeIdentifier": "t_contract$_ERC20_$960",
                    "typeString": "contract ERC20"
                  },
                  "typeName": {
                    "contractScope": null,
                    "id": 1191,
                    "name": "ERC20",
                    "nodeType": "UserDefinedTypeName",
                    "referencedDeclaration": 960,
                    "src": "727:5:12",
                    "typeDescriptions": {
                      "typeIdentifier": "t_contract$_ERC20_$960",
                      "typeString": "contract ERC20"
                    }
                  },
                  "value": null,
                  "visibility": "internal"
                },
                {
                  "constant": false,
                  "id": 1194,
                  "name": "_spender",
                  "nodeType": "VariableDeclaration",
                  "scope": 1208,
                  "src": "745:16:12",
                  "stateVariable": false,
                  "storageLocation": "default",
                  "typeDescriptions": {
                    "typeIdentifier": "t_address",
                    "typeString": "address"
                  },
                  "typeName": {
                    "id": 1193,
                    "name": "address",
                    "nodeType": "ElementaryTypeName",
                    "src": "745:7:12",
                    "typeDescriptions": {
                      "typeIdentifier": "t_address",
                      "typeString": "address"
                    }
                  },
                  "value": null,
                  "visibility": "internal"
                },
                {
                  "constant": false,
                  "id": 1196,
                  "name": "_value",
                  "nodeType": "VariableDeclaration",
                  "scope": 1208,
                  "src": "767:14:12",
                  "stateVariable": false,
                  "storageLocation": "default",
                  "typeDescriptions": {
                    "typeIdentifier": "t_uint256",
                    "typeString": "uint256"
                  },
                  "typeName": {
                    "id": 1195,
                    "name": "uint256",
                    "nodeType": "ElementaryTypeName",
                    "src": "767:7:12",
                    "typeDescriptions": {
                      "typeIdentifier": "t_uint256",
                      "typeString": "uint256"
                    }
                  },
                  "value": null,
                  "visibility": "internal"
                }
              ],
              "src": "721:64:12"
            },
            "payable": false,
            "returnParameters": {
              "id": 1198,
              "nodeType": "ParameterList",
              "parameters": [],
              "src": "801:0:12"
            },
            "scope": 1209,
            "src": "701:152:12",
            "stateMutability": "nonpayable",
            "superFunction": null,
            "visibility": "internal"
          }
        ],
        "scope": 1210,
        "src": "349:506:12"
      }
    ],
    "src": "0:856:12"
  },
  "compiler": {
    "name": "solc",
    "version": "0.4.24+commit.e67f0147.Emscripten.clang"
  },
  "networks": {},
  "schemaVersion": "2.0.1",
  "updatedAt": "2018-09-18T11:34:23.823Z"
}